{
	"name": "pl_ingestion_result_child",
	"properties": {
		"activities": [
			{
				"name": "ForEach1",
				"type": "ForEach",
				"dependsOn": [],
				"userProperties": [],
				"typeProperties": {
					"items": {
						"value": "@variables('season_round')",
						"type": "Expression"
					},
					"isSequential": true,
					"activities": [
						{
							"name": "Set variable_season_id",
							"type": "SetVariable",
							"dependsOn": [],
							"policy": {
								"secureOutput": false,
								"secureInput": false
							},
							"userProperties": [],
							"typeProperties": {
								"variableName": "season_id",
								"value": {
									"value": "@item().season",
									"type": "Expression"
								}
							}
						},
						{
							"name": "Set variable_round_id",
							"type": "SetVariable",
							"dependsOn": [],
							"policy": {
								"secureOutput": false,
								"secureInput": false
							},
							"userProperties": [],
							"typeProperties": {
								"variableName": "round_id",
								"value": {
									"value": "@item().round",
									"type": "Expression"
								}
							}
						},
						{
							"name": "Copy data_result_data",
							"type": "Copy",
							"dependsOn": [
								{
									"activity": "Set variable_season_id",
									"dependencyConditions": [
										"Succeeded"
									]
								},
								{
									"activity": "Set variable_round_id",
									"dependencyConditions": [
										"Succeeded"
									]
								}
							],
							"policy": {
								"timeout": "0.12:00:00",
								"retry": 0,
								"retryIntervalInSeconds": 30,
								"secureOutput": false,
								"secureInput": false
							},
							"userProperties": [],
							"typeProperties": {
								"source": {
									"type": "JsonSource",
									"storeSettings": {
										"type": "HttpReadSettings",
										"requestMethod": "GET"
									},
									"formatSettings": {
										"type": "JsonReadSettings"
									}
								},
								"sink": {
									"type": "JsonSink",
									"storeSettings": {
										"type": "AzureBlobFSWriteSettings"
									},
									"formatSettings": {
										"type": "JsonWriteSettings"
									}
								},
								"enableStaging": false
							},
							"inputs": [
								{
									"referenceName": "ds_http_server",
									"type": "DatasetReference",
									"parameters": {
										"relative_url": {
											"value": "@concat(variables('season_id'),'/',variables('round_id'),'/results.json?limit=100')",
											"type": "Expression"
										}
									}
								}
							],
							"outputs": [
								{
									"referenceName": "ds_adls_storage",
									"type": "DatasetReference",
									"parameters": {
										"directory_path": {
											"value": "@concat('bronze/results/',string(utcnow('yyyyMMdd')))",
											"type": "Expression"
										},
										"filename": {
											"value": "@concat(variables('season_id'),'_',variables('round_id'),'.json')",
											"type": "Expression"
										}
									}
								}
							]
						}
					]
				}
			}
		],
		"variables": {
			"season_round": {
				"type": "String"
			},
			"season_id": {
				"type": "String"
			},
			"round_id": {
				"type": "String"
			}
		},
		"annotations": [],
		"lastPublishTime": "2024-04-12T18:05:40Z"
	},
	"type": "Microsoft.DataFactory/factories/pipelines"
}